{
  "g50_address": "192.168.1.99",
  "g50_zones": "1,2,3",
  "scrape_interval": 50,
  "debug_mode": false,
  "name": "occam",
  "listen_port": 9087,
  "log_level": 6,
  "allowed_metrics_ips": {
    "192.168": "Local RFC1918 addresses",
    "127": "Localhost",
    "172.16": "Local docker containers",
    "172.17": "Local docker containers",
    "172.18": "Local docker containers",
    "172.19": "Local docker containers",
    "172.20": "Local docker containers",
    "172.21": "Local docker containers",
    "172.22": "Local docker containers",
    "172.23": "Local docker containers",
    "172.24": "Local docker containers",
    "172.25": "Local docker containers",
    "172.26": "Local docker containers",
    "172.27": "Local docker containers",
    "172.28": "Local docker containers",
    "172.29": "Local docker containers",
    "172.30": "Local docker containers",
    "172.31": "Local docker containers"
  }
}